{
  "displayName": {
    "name": "POSTS API",
    "color": "blue"
  },
  "bail": true,
  "verbose": true,
  "collectCoverage": false,
  "collectCoverageFrom": [
    "server/**/*.spec.js",
    "!node_modules/**",
    "!test/**",
    "!app.js"
  ],
  "coverageThreshold": {
    "global": {
      "branches": 20,
      "functions": 25,
      "lines": 70,
      "statements": 70
    }
  },
  "preset": "@shelf/jest-mongodb",
  "roots": ["../server/"],
  "testEnvironment": "node"
}
